(kicad_symbol_lib (version 20211014) (generator kicad_symbol_editor)
  (symbol "FC7106" (pin_names (offset 1.016) hide) (in_bom yes) (on_board yes)
    (property "Reference" "SW" (id 0) (at -10.16 6.096 0)
      (effects (font (size 1.27 1.27)) (justify left))
    )
    (property "Value" "FC7106" (id 1) (at -10.16 -8.89 0)
      (effects (font (size 1.27 1.27)) (justify left))
    )
    (property "Footprint" "mika-pageturner:FC7106" (id 2) (at 0 -17.526 0)
      (effects (font (size 1.27 1.27)) hide)
    )
    (property "Datasheet" "https://www.cliffuk.co.uk/products/switches/FC7106.pdf" (id 3) (at 0 -23.368 0)
      (effects (font (size 1.27 1.27)) hide)
    )
    (property "manf" "Cliff" (id 4) (at 9.652 4.064 0)
      (effects (font (size 0.635 0.635)) (justify right))
    )
    (property "manf#" "FC7106" (id 5) (at 9.652 2.794 0)
      (effects (font (size 0.635 0.635)) (justify right))
    )
    (property "desc" "Double-Pole Switch with PC tags" (id 6) (at 0 -19.558 0)
      (effects (font (size 1.27 1.27)) hide)
    )
    (property "PurchaseLink" "https://www.elfadistrelec.fi/fi/jalkapoljinpainokytkin-hetkellinen-toiminto-2co-piirilevy-metallinen-cliff-fc7106/p/30091229" (id 7) (at 0 -21.59 0)
      (effects (font (size 1.27 1.27)) hide)
    )
    (property "ki_keywords" "switch pushbutton push-button" (id 8) (at 0 0 0)
      (effects (font (size 1.27 1.27)) hide)
    )
    (property "ki_description" "Double-Pole Switch with PC tags" (id 9) (at 0 0 0)
      (effects (font (size 1.27 1.27)) hide)
    )
    (symbol "FC7106_0_1"
      (rectangle (start -10.16 5.08) (end 10.16 -7.62)
        (stroke (width 0) (type default) (color 0 0 0 0))
        (fill (type background))
      )
      (circle (center -7.112 -5.08) (radius 0.508)
        (stroke (width 0) (type default) (color 0 0 0 0))
        (fill (type none))
      )
      (circle (center -7.112 0) (radius 0.508)
        (stroke (width 0) (type default) (color 0 0 0 0))
        (fill (type none))
      )
      (circle (center -3.048 -5.08) (radius 0.508)
        (stroke (width 0) (type default) (color 0 0 0 0))
        (fill (type none))
      )
      (circle (center -3.048 0) (radius 0.508)
        (stroke (width 0) (type default) (color 0 0 0 0))
        (fill (type none))
      )
      (polyline
        (pts
          (xy -10.16 -5.08)
          (xy -7.62 -5.08)
        )
        (stroke (width 0) (type default) (color 0 0 0 0))
        (fill (type none))
      )
      (polyline
        (pts
          (xy -10.16 0)
          (xy -7.62 0)
        )
        (stroke (width 0) (type default) (color 0 0 0 0))
        (fill (type none))
      )
      (polyline
        (pts
          (xy -5.08 -3.048)
          (xy -5.08 -3.556)
        )
        (stroke (width 0) (type default) (color 0 0 0 0))
        (fill (type none))
      )
      (polyline
        (pts
          (xy -5.08 -2.032)
          (xy -5.08 -2.54)
        )
        (stroke (width 0) (type default) (color 0 0 0 0))
        (fill (type none))
      )
      (polyline
        (pts
          (xy -5.08 -1.524)
          (xy -5.08 -1.016)
        )
        (stroke (width 0) (type default) (color 0 0 0 0))
        (fill (type none))
      )
      (polyline
        (pts
          (xy -5.08 -0.508)
          (xy -5.08 0)
        )
        (stroke (width 0) (type default) (color 0 0 0 0))
        (fill (type none))
      )
      (polyline
        (pts
          (xy -5.08 0.508)
          (xy -5.08 1.016)
        )
        (stroke (width 0) (type default) (color 0 0 0 0))
        (fill (type none))
      )
      (polyline
        (pts
          (xy -5.08 1.27)
          (xy -5.08 3.048)
        )
        (stroke (width 0) (type default) (color 0 0 0 0))
        (fill (type none))
      )
      (polyline
        (pts
          (xy -2.54 -3.81)
          (xy -7.62 -3.81)
        )
        (stroke (width 0) (type default) (color 0 0 0 0))
        (fill (type none))
      )
      (polyline
        (pts
          (xy -2.54 1.27)
          (xy -7.62 1.27)
        )
        (stroke (width 0) (type default) (color 0 0 0 0))
        (fill (type none))
      )
      (polyline
        (pts
          (xy 0 -7.62)
          (xy 0 -5.08)
        )
        (stroke (width 0) (type default) (color 0 0 0 0))
        (fill (type none))
      )
      (polyline
        (pts
          (xy 0 -5.08)
          (xy -2.54 -5.08)
        )
        (stroke (width 0) (type default) (color 0 0 0 0))
        (fill (type none))
      )
      (polyline
        (pts
          (xy 0 -5.08)
          (xy 2.54 -5.08)
        )
        (stroke (width 0) (type default) (color 0 0 0 0))
        (fill (type none))
      )
      (polyline
        (pts
          (xy 0 0)
          (xy -2.54 0)
        )
        (stroke (width 0) (type default) (color 0 0 0 0))
        (fill (type none))
      )
      (polyline
        (pts
          (xy 0 0)
          (xy 2.54 0)
        )
        (stroke (width 0) (type default) (color 0 0 0 0))
        (fill (type none))
      )
      (polyline
        (pts
          (xy 0 2.54)
          (xy 0 0)
        )
        (stroke (width 0) (type default) (color 0 0 0 0))
        (fill (type none))
      )
      (polyline
        (pts
          (xy 0 5.08)
          (xy 0 2.54)
        )
        (stroke (width 0) (type default) (color 0 0 0 0))
        (fill (type none))
      )
      (polyline
        (pts
          (xy 2.54 -5.588)
          (xy 7.62 -5.588)
        )
        (stroke (width 0) (type default) (color 0 0 0 0))
        (fill (type none))
      )
      (polyline
        (pts
          (xy 2.54 -0.508)
          (xy 7.62 -0.508)
        )
        (stroke (width 0) (type default) (color 0 0 0 0))
        (fill (type none))
      )
      (polyline
        (pts
          (xy 5.08 -4.826)
          (xy 5.08 -5.334)
        )
        (stroke (width 0) (type default) (color 0 0 0 0))
        (fill (type none))
      )
      (polyline
        (pts
          (xy 5.08 -3.81)
          (xy 5.08 -4.318)
        )
        (stroke (width 0) (type default) (color 0 0 0 0))
        (fill (type none))
      )
      (polyline
        (pts
          (xy 5.08 -3.302)
          (xy 5.08 -2.794)
        )
        (stroke (width 0) (type default) (color 0 0 0 0))
        (fill (type none))
      )
      (polyline
        (pts
          (xy 5.08 -2.286)
          (xy 5.08 -1.778)
        )
        (stroke (width 0) (type default) (color 0 0 0 0))
        (fill (type none))
      )
      (polyline
        (pts
          (xy 5.08 -1.27)
          (xy 5.08 -0.762)
        )
        (stroke (width 0) (type default) (color 0 0 0 0))
        (fill (type none))
      )
      (polyline
        (pts
          (xy 5.08 -0.508)
          (xy 5.08 1.27)
        )
        (stroke (width 0) (type default) (color 0 0 0 0))
        (fill (type none))
      )
      (polyline
        (pts
          (xy 7.62 -5.08)
          (xy 10.16 -5.08)
        )
        (stroke (width 0) (type default) (color 0 0 0 0))
        (fill (type none))
      )
      (polyline
        (pts
          (xy 7.62 0)
          (xy 10.16 0)
        )
        (stroke (width 0) (type default) (color 0 0 0 0))
        (fill (type none))
      )
      (circle (center 3.048 -5.08) (radius 0.508)
        (stroke (width 0) (type default) (color 0 0 0 0))
        (fill (type none))
      )
      (circle (center 3.048 0) (radius 0.508)
        (stroke (width 0) (type default) (color 0 0 0 0))
        (fill (type none))
      )
      (circle (center 7.112 -5.08) (radius 0.508)
        (stroke (width 0) (type default) (color 0 0 0 0))
        (fill (type none))
      )
      (circle (center 7.112 0) (radius 0.508)
        (stroke (width 0) (type default) (color 0 0 0 0))
        (fill (type none))
      )
      (pin passive line (at -12.7 0 0) (length 2.54)
        (name "1" (effects (font (size 1.27 1.27))))
        (number "1" (effects (font (size 1.27 1.27))))
      )
      (pin passive line (at 0 7.62 270) (length 2.54)
        (name "2" (effects (font (size 1.27 1.27))))
        (number "2" (effects (font (size 1.27 1.27))))
      )
      (pin passive line (at 12.7 0 180) (length 2.54)
        (name "3" (effects (font (size 1.27 1.27))))
        (number "3" (effects (font (size 1.27 1.27))))
      )
      (pin passive line (at -12.7 -5.08 0) (length 2.54)
        (name "4" (effects (font (size 1.27 1.27))))
        (number "4" (effects (font (size 1.27 1.27))))
      )
      (pin passive line (at 0 -10.16 90) (length 2.54)
        (name "5" (effects (font (size 1.27 1.27))))
        (number "5" (effects (font (size 1.27 1.27))))
      )
      (pin passive line (at 12.7 -5.08 180) (length 2.54)
        (name "6" (effects (font (size 1.27 1.27))))
        (number "6" (effects (font (size 1.27 1.27))))
      )
    )
  )
  (symbol "FS5700SPM" (pin_names (offset 1.016) hide) (in_bom yes) (on_board yes)
    (property "Reference" "SW" (id 0) (at -10.16 6.096 0)
      (effects (font (size 1.27 1.27)) (justify left))
    )
    (property "Value" "FS5700SPM" (id 1) (at 10.16 6.35 0)
      (effects (font (size 1.27 1.27)) (justify right))
    )
    (property "Footprint" "" (id 2) (at 0 -17.526 0)
      (effects (font (size 1.27 1.27)) hide)
    )
    (property "Datasheet" "https://sten-eswitch-13110800-production.s3.amazonaws.com/system/asset/product_line/data_sheet/226/FS5700.pdf" (id 3) (at 0 -15.24 0)
      (effects (font (size 1.27 1.27)) hide)
    )
    (property "manf" "E-Switch" (id 4) (at 9.652 4.064 0)
      (effects (font (size 0.635 0.635)) (justify right))
    )
    (property "manf#" "FS5700SPMT2B2M2QE" (id 5) (at 9.652 2.794 0)
      (effects (font (size 0.635 0.635)) (justify right))
    )
    (property "desc" "SWITCH PUSHBUTTON SPDT 1A 9V" (id 6) (at 0 -11.43 0)
      (effects (font (size 1.27 1.27)) hide)
    )
    (property "PurchaseLink" "https://www.digikey.fi/fi/products/detail/e-switch/FS5700SPMT2B2M2QE/6825404" (id 7) (at 0 -13.335 0)
      (effects (font (size 1.27 1.27)) hide)
    )
    (property "ki_keywords" "switch pushbutton push-button" (id 8) (at 0 0 0)
      (effects (font (size 1.27 1.27)) hide)
    )
    (property "ki_description" "Pushbutton Switch SPDT Standard Panel Mount, Rear" (id 9) (at 0 0 0)
      (effects (font (size 1.27 1.27)) hide)
    )
    (symbol "FS5700SPM_0_1"
      (rectangle (start -10.16 5.08) (end 10.16 -7.62)
        (stroke (width 0) (type default) (color 0 0 0 0))
        (fill (type background))
      )
      (circle (center -7.112 0) (radius 0.508)
        (stroke (width 0) (type default) (color 0 0 0 0))
        (fill (type none))
      )
      (circle (center -3.048 0) (radius 0.508)
        (stroke (width 0) (type default) (color 0 0 0 0))
        (fill (type none))
      )
      (polyline
        (pts
          (xy -10.16 0)
          (xy -7.62 0)
        )
        (stroke (width 0) (type default) (color 0 0 0 0))
        (fill (type none))
      )
      (polyline
        (pts
          (xy -5.08 -0.635)
          (xy -5.08 1.143)
        )
        (stroke (width 0) (type default) (color 0 0 0 0))
        (fill (type none))
      )
      (polyline
        (pts
          (xy -2.54 -0.635)
          (xy -7.62 -0.635)
        )
        (stroke (width 0) (type default) (color 0 0 0 0))
        (fill (type none))
      )
      (polyline
        (pts
          (xy 0 0)
          (xy -2.54 0)
        )
        (stroke (width 0) (type default) (color 0 0 0 0))
        (fill (type none))
      )
      (polyline
        (pts
          (xy 0 0)
          (xy 0 -7.62)
        )
        (stroke (width 0) (type default) (color 0 0 0 0))
        (fill (type none))
      )
      (polyline
        (pts
          (xy 0 0)
          (xy 2.54 0)
        )
        (stroke (width 0) (type default) (color 0 0 0 0))
        (fill (type none))
      )
      (polyline
        (pts
          (xy 2.54 1.397)
          (xy 7.62 1.397)
        )
        (stroke (width 0) (type default) (color 0 0 0 0))
        (fill (type none))
      )
      (polyline
        (pts
          (xy 5.08 1.397)
          (xy 5.08 3.175)
        )
        (stroke (width 0) (type default) (color 0 0 0 0))
        (fill (type none))
      )
      (polyline
        (pts
          (xy 7.62 0)
          (xy 10.16 0)
        )
        (stroke (width 0) (type default) (color 0 0 0 0))
        (fill (type none))
      )
      (circle (center 3.048 0) (radius 0.508)
        (stroke (width 0) (type default) (color 0 0 0 0))
        (fill (type none))
      )
      (circle (center 7.112 0) (radius 0.508)
        (stroke (width 0) (type default) (color 0 0 0 0))
        (fill (type none))
      )
      (pin passive line (at -12.7 0 0) (length 2.54)
        (name "1" (effects (font (size 1.27 1.27))))
        (number "1" (effects (font (size 1.27 1.27))))
      )
      (pin passive line (at 0 -10.16 90) (length 2.54)
        (name "2" (effects (font (size 1.27 1.27))))
        (number "2" (effects (font (size 1.27 1.27))))
      )
      (pin passive line (at 12.7 0 180) (length 2.54)
        (name "3" (effects (font (size 1.27 1.27))))
        (number "3" (effects (font (size 1.27 1.27))))
      )
    )
  )
  (symbol "USB_C_HoleMount" (pin_names (offset 1.016)) (in_bom yes) (on_board yes)
    (property "Reference" "J3" (id 0) (at 19.05 -1.2701 90)
      (effects (font (size 1.27 1.27)) (justify left) hide)
    )
    (property "Value" "USB_C_HoleMount" (id 1) (at 19.05 1.2699 90)
      (effects (font (size 1.27 1.27)) (justify left) hide)
    )
    (property "Footprint" "" (id 2) (at 0 -3.81 0)
      (effects (font (size 1.27 1.27)) hide)
    )
    (property "Datasheet" "https://cdn-shop.adafruit.com/product-files/4261/P4261-diagram.pdf" (id 3) (at 0 -3.81 0)
      (effects (font (size 1.27 1.27)) hide)
    )
    (property "digikey#" "1528-4261-ND" (id 4) (at 0 0 0)
      (effects (font (size 1.27 1.27)) hide)
    )
    (property "manf" "Adafruit Industries LLC" (id 5) (at 0 0 0)
      (effects (font (size 1.27 1.27)) hide)
    )
    (property "manf#" "4261" (id 6) (at 0 0 0)
      (effects (font (size 1.27 1.27)) hide)
    )
    (property "desc" "USB C JACK TO USB C JACK ROUND P" (id 7) (at 0 0 0)
      (effects (font (size 1.27 1.27)) hide)
    )
    (property "PurchaseLink" "https://www.digikey.fi/en/products/detail/adafruit-industries-llc/4261/10287031" (id 8) (at 0 0 0)
      (effects (font (size 1.27 1.27)) hide)
    )
    (property "ki_keywords" "usb universal serial bus type-C USB2.0" (id 9) (at 0 0 0)
      (effects (font (size 1.27 1.27)) hide)
    )
    (property "ki_description" "USB 2.0-only Type-C Receptacle connector" (id 10) (at 0 0 0)
      (effects (font (size 1.27 1.27)) hide)
    )
    (property "ki_fp_filters" "USB*C*Receptacle*" (id 11) (at 0 0 0)
      (effects (font (size 1.27 1.27)) hide)
    )
    (symbol "USB_C_HoleMount_0_1"
      (arc (start -8.89 -3.81) (mid -6.985 -5.715) (end -5.08 -3.81)
        (stroke (width 0.508) (type default) (color 0 0 0 0))
        (fill (type none))
      )
      (arc (start -7.62 -3.81) (mid -6.985 -4.445) (end -6.35 -3.81)
        (stroke (width 0.254) (type default) (color 0 0 0 0))
        (fill (type none))
      )
      (arc (start -7.62 -3.81) (mid -6.985 -4.445) (end -6.35 -3.81)
        (stroke (width 0.254) (type default) (color 0 0 0 0))
        (fill (type outline))
      )
      (rectangle (start -7.62 -3.81) (end -6.35 3.81)
        (stroke (width 0.254) (type default) (color 0 0 0 0))
        (fill (type outline))
      )
      (arc (start -6.35 3.81) (mid -6.985 4.445) (end -7.62 3.81)
        (stroke (width 0.254) (type default) (color 0 0 0 0))
        (fill (type none))
      )
      (arc (start -6.35 3.81) (mid -6.985 4.445) (end -7.62 3.81)
        (stroke (width 0.254) (type default) (color 0 0 0 0))
        (fill (type outline))
      )
      (arc (start -5.08 3.81) (mid -6.985 5.715) (end -8.89 3.81)
        (stroke (width 0.508) (type default) (color 0 0 0 0))
        (fill (type none))
      )
      (circle (center -2.54 1.143) (radius 0.635)
        (stroke (width 0.254) (type default) (color 0 0 0 0))
        (fill (type outline))
      )
      (circle (center 0 -5.842) (radius 1.27)
        (stroke (width 0) (type default) (color 0 0 0 0))
        (fill (type outline))
      )
      (polyline
        (pts
          (xy -8.89 -3.81)
          (xy -8.89 3.81)
        )
        (stroke (width 0.508) (type default) (color 0 0 0 0))
        (fill (type none))
      )
      (polyline
        (pts
          (xy -5.08 3.81)
          (xy -5.08 -3.81)
        )
        (stroke (width 0.508) (type default) (color 0 0 0 0))
        (fill (type none))
      )
      (polyline
        (pts
          (xy 0 -5.842)
          (xy 0 4.318)
        )
        (stroke (width 0.508) (type default) (color 0 0 0 0))
        (fill (type none))
      )
      (polyline
        (pts
          (xy 0 -3.302)
          (xy -2.54 -0.762)
          (xy -2.54 0.508)
        )
        (stroke (width 0.508) (type default) (color 0 0 0 0))
        (fill (type none))
      )
      (polyline
        (pts
          (xy 0 -2.032)
          (xy 2.54 0.508)
          (xy 2.54 1.778)
        )
        (stroke (width 0.508) (type default) (color 0 0 0 0))
        (fill (type none))
      )
      (polyline
        (pts
          (xy -1.27 4.318)
          (xy 0 6.858)
          (xy 1.27 4.318)
          (xy -1.27 4.318)
        )
        (stroke (width 0.254) (type default) (color 0 0 0 0))
        (fill (type outline))
      )
      (circle (center 0 0) (radius 13.7372)
        (stroke (width 0.254) (type default) (color 0 0 0 0))
        (fill (type background))
      )
      (rectangle (start 1.905 1.778) (end 3.175 3.048)
        (stroke (width 0.254) (type default) (color 0 0 0 0))
        (fill (type outline))
      )
    )
  )
  (symbol "XIAO_nRF52840" (in_bom yes) (on_board yes)
    (property "Reference" "U" (id 0) (at 0 11.43 0)
      (effects (font (size 1.27 1.27)))
    )
    (property "Value" "XIAO_nRF52840" (id 1) (at 7.62 -11.43 0)
      (effects (font (size 1.27 1.27)) (justify left))
    )
    (property "Footprint" "" (id 2) (at -7.62 7.62 0)
      (effects (font (size 1.27 1.27)) hide)
    )
    (property "Datasheet" "" (id 3) (at -7.62 7.62 0)
      (effects (font (size 1.27 1.27)) hide)
    )
    (symbol "XIAO_nRF52840_0_0"
      (pin bidirectional line (at -10.16 7.62 0) (length 2.54)
        (name "D0" (effects (font (size 1.27 1.27))))
        (number "0" (effects (font (size 1.27 1.27))))
      )
      (pin bidirectional line (at -10.16 5.08 0) (length 2.54)
        (name "D1" (effects (font (size 1.27 1.27))))
        (number "1" (effects (font (size 1.27 1.27))))
      )
      (pin bidirectional line (at 10.16 0 180) (length 2.54)
        (name "D10" (effects (font (size 1.27 1.27))))
        (number "10" (effects (font (size 1.27 1.27))))
      )
      (pin power_out line (at 10.16 2.54 180) (length 2.54)
        (name "3V3" (effects (font (size 1.27 1.27))))
        (number "11" (effects (font (size 1.27 1.27))))
      )
      (pin power_out line (at 10.16 5.08 180) (length 2.54)
        (name "GND" (effects (font (size 1.27 1.27))))
        (number "12" (effects (font (size 1.27 1.27))))
      )
      (pin power_out line (at 10.16 7.62 180) (length 2.54)
        (name "5V" (effects (font (size 1.27 1.27))))
        (number "13" (effects (font (size 1.27 1.27))))
      )
      (pin bidirectional line (at -10.16 2.54 0) (length 2.54)
        (name "D2" (effects (font (size 1.27 1.27))))
        (number "2" (effects (font (size 1.27 1.27))))
      )
      (pin bidirectional line (at -10.16 0 0) (length 2.54)
        (name "D3" (effects (font (size 1.27 1.27))))
        (number "3" (effects (font (size 1.27 1.27))))
      )
      (pin bidirectional line (at -10.16 -2.54 0) (length 2.54)
        (name "D4" (effects (font (size 1.27 1.27))))
        (number "4" (effects (font (size 1.27 1.27))))
      )
      (pin bidirectional line (at -10.16 -5.08 0) (length 2.54)
        (name "D5" (effects (font (size 1.27 1.27))))
        (number "5" (effects (font (size 1.27 1.27))))
      )
      (pin bidirectional line (at -10.16 -7.62 0) (length 2.54)
        (name "D6" (effects (font (size 1.27 1.27))))
        (number "6" (effects (font (size 1.27 1.27))))
      )
      (pin bidirectional line (at 10.16 -7.62 180) (length 2.54)
        (name "D7" (effects (font (size 1.27 1.27))))
        (number "7" (effects (font (size 1.27 1.27))))
      )
      (pin bidirectional line (at 10.16 -5.08 180) (length 2.54)
        (name "D8" (effects (font (size 1.27 1.27))))
        (number "8" (effects (font (size 1.27 1.27))))
      )
      (pin bidirectional line (at 10.16 -2.54 180) (length 2.54)
        (name "D9" (effects (font (size 1.27 1.27))))
        (number "9" (effects (font (size 1.27 1.27))))
      )
    )
    (symbol "XIAO_nRF52840_0_1"
      (rectangle (start -7.62 10.16) (end 7.62 -10.16)
        (stroke (width 0) (type default) (color 0 0 0 0))
        (fill (type background))
      )
    )
    (symbol "XIAO_nRF52840_1_1"
      (pin passive line (at -1.27 -12.7 90) (length 2.54)
        (name "GND" (effects (font (size 1.27 1.27))))
        (number "14" (effects (font (size 1.27 1.27))))
      )
      (pin power_in line (at 1.27 -12.7 90) (length 2.54)
        (name "BAT" (effects (font (size 1.27 1.27))))
        (number "15" (effects (font (size 1.27 1.27))))
      )
    )
  )
)
