(footprint "FC7106" (version 20211014) (generator pcbnew)
  (layer "F.Cu")
  (tedit 0)
  (attr through_hole)
  (fp_text reference "REF**" (at 0 -8.128 unlocked) (layer "F.SilkS")
    (effects (font (size 1 1) (thickness 0.15)))
    (tstamp 0075e00a-7db3-4ca9-b25b-693aabd07773)
  )
  (fp_text value "FC7106" (at 0 0 unlocked) (layer "F.Fab")
    (effects (font (size 1 1) (thickness 0.15)))
    (tstamp d9ef6e9e-a872-4744-9ebb-8953a14ab47d)
  )
  (fp_text user "(ON)" (at -7.1 0 unlocked) (layer "F.SilkS")
    (effects (font (size 1 1) (thickness 0.15)))
    (tstamp 72fd02e2-1db3-4b9a-a9eb-2a1cead0ff3e)
  )
  (fp_text user "${VALUE}" (at 0 0 unlocked) (layer "F.SilkS")
    (effects (font (size 1 1) (thickness 0.15)))
    (tstamp a4305f6a-f29f-4e8e-9cb4-581c1c32971e)
  )
  (fp_text user "ON" (at 7.1 0 unlocked) (layer "F.SilkS")
    (effects (font (size 1 1) (thickness 0.15)))
    (tstamp bde32fcf-932d-4f1c-bd52-7eb99c7fec50)
  )
  (fp_text user "12.20 mm" (at 0 2.5 unlocked) (layer "Dwgs.User")
    (effects (font (size 1 1) (thickness 0.15)))
    (tstamp 585e8b7f-3473-453b-a34e-a911632943bd)
  )
  (fp_text user "hole diameter" (at 0 1.016) (layer "Dwgs.User")
    (effects (font (size 1 1) (thickness 0.15)))
    (tstamp 9acb94c7-6c7d-4a43-88af-8bc11ff12834)
  )
  (fp_text user "${REFERENCE}" (at 0 -8.128 unlocked) (layer "F.Fab")
    (effects (font (size 1 1) (thickness 0.15)))
    (tstamp 2693bfc1-ce6b-4032-a378-ca606e00386d)
  )
  (fp_text user "ON" (at 7.1 0 unlocked) (layer "F.Fab")
    (effects (font (size 1 1) (thickness 0.15)))
    (tstamp 2a1babbd-c0f6-4270-b796-98e64824af6a)
  )
  (fp_text user "(ON)" (at -7.1 0 unlocked) (layer "F.Fab")
    (effects (font (size 1 1) (thickness 0.15)))
    (tstamp db95859e-3e5b-47cb-9d74-dfd7c9ac5b93)
  )
  (fp_rect (start -9.45 -7.2) (end 9.45 7.2) (layer "F.SilkS") (width 0.12) (fill none) (tstamp 39a834e0-b77c-4178-a4f4-59c088199492))
  (fp_circle (center 0 0) (end 6.1 0) (layer "F.SilkS") (width 0.05) (fill none) (tstamp e50e90df-b78d-4404-bb41-090128309c69))
  (fp_line (start 0 0) (end 0 -2.5) (layer "Dwgs.User") (width 0.12) (tstamp 0db38e96-4fa0-467d-918a-fdf695803b96))
  (fp_line (start -2.5 0) (end 2.5 0) (layer "Dwgs.User") (width 0.12) (tstamp 3ab2b571-e6c2-4f9c-936b-ce15d89ccf72))
  (fp_circle (center 0 0) (end 6.1 0) (layer "Dwgs.User") (width 0.12) (fill none) (tstamp 3f0c285f-9e07-40ab-b198-f9de8caad0fb))
  (fp_rect (start -9.45 -7.2) (end 9.45 7.2) (layer "F.CrtYd") (width 0.05) (fill none) (tstamp 1bede221-72f8-43a9-9ace-4e264a300793))
  (fp_rect (start -9.45 -7.2) (end 9.45 7.2) (layer "F.Fab") (width 0.1) (fill none) (tstamp 3e27ed50-a658-40af-8fbf-b8f5603fae5a))
  (pad "1" thru_hole circle (at -7.1 -4.3) (size 3.5 3.5) (drill 1.5) (layers *.Cu *.Mask) (tstamp 857fd48d-3069-4491-ae07-acf5a9b6ae92))
  (pad "2" thru_hole circle (at 0 -4.3) (size 3.5 3.5) (drill 1.5) (layers *.Cu *.Mask) (tstamp b2c7750b-cce2-4b1b-a0cd-2f76dff50846))
  (pad "3" thru_hole circle (at 7.1 -4.3) (size 3.5 3.5) (drill 1.5) (layers *.Cu *.Mask) (tstamp 5fb51679-421b-4cfd-833b-00e756825212))
  (pad "4" thru_hole circle (at -7.1 4.3) (size 3.5 3.5) (drill 1.5) (layers *.Cu *.Mask) (tstamp 383b0c1f-c511-441f-ad57-91cf6df5ebbe))
  (pad "5" thru_hole circle (at 0 4.3) (size 3.5 3.5) (drill 1.5) (layers *.Cu *.Mask) (tstamp cd369c28-cfff-477a-a03f-c3f262f30b8a))
  (pad "6" thru_hole circle (at 7.1 4.3) (size 3.5 3.5) (drill 1.5) (layers *.Cu *.Mask) (tstamp 64c66598-93ba-430d-9c08-8524793c4da5))
)
