(footprint "XIAO_nRF52840" (version 20221018) (generator pcbnew)
  (layer "F.Cu")
  (property "PurchaseLink" "https://www.seeedstudio.com/Seeed-XIAO-BLE-nRF52840-p-5201.html")
  (property "Sheetfile" "mika-pageturner.kicad_sch")
  (property "Sheetname" "")
  (property "desc" "SEEED STUDIO XIAO NRF52840")
  (property "digikey#" "1597-102010448-ND")
  (property "manf" "Seeed Technology Co., Ltd")
  (property "manf#" "102010448")
  (attr through_hole)
  (fp_text reference "U1" (at -0.01 -10.38 unlocked) (layer "F.SilkS")
      (effects (font (size 1 1) (thickness 0.15)))
    (tstamp f66390cf-515c-4842-951a-4a0243b960c1)
  )
  (fp_text value "SEEED STUDIO XIAO nRF52840" (at 0 1.27 unlocked) (layer "F.Fab")
      (effects (font (size 1 1) (thickness 0.15)))
    (tstamp 6088fd1b-28f3-4163-87e7-b50fac5d6d5e)
  )
  (fp_text user "${VALUE}" (at -10.36 -0.03 270 unlocked) (layer "F.SilkS")
      (effects (font (size 1 1) (thickness 0.15)))
    (tstamp 21d22c91-597f-4c64-bbdf-531c298e3726)
  )
  (fp_text user "GND" (at -3.26 -2.54 unlocked) (layer "F.SilkS")
      (effects (font (size 1 1) (thickness 0.15)) (justify left))
    (tstamp a14e7fae-2287-423c-a0e2-24e573bb2888)
  )
  (fp_text user "BATT" (at -3.26 -0.635 unlocked) (layer "F.SilkS")
      (effects (font (size 1 1) (thickness 0.15)) (justify left))
    (tstamp ce39b203-caa0-465a-9602-9993e5084c30)
  )
  (fp_text user "${REFERENCE}" (at 0 -1.27 unlocked) (layer "F.Fab")
      (effects (font (size 1 1) (thickness 0.15)))
    (tstamp 76fba2f8-9b25-4a8a-867b-54d7d70131d0)
  )
  (fp_line (start -9 9) (end -9 -9)
    (stroke (width 0.12) (type solid)) (layer "F.SilkS") (tstamp ac462834-d1fa-4979-bf71-d4da5fe0d275))
  (fp_line (start -7.5 -10.5) (end -4.5 -10.5)
    (stroke (width 0.12) (type solid)) (layer "F.SilkS") (tstamp 0ff650cb-1f6f-45c4-bd7b-d66f3cb7ddcc))
  (fp_line (start -7.5 10.5) (end 7.5 10.5)
    (stroke (width 0.12) (type solid)) (layer "F.SilkS") (tstamp ee481b8d-f865-4b51-b1b6-ec2edd5ccb32))
  (fp_line (start -4.5 -11.5) (end 4.5 -11.5)
    (stroke (width 0.12) (type solid)) (layer "F.SilkS") (tstamp f869b842-7d88-44a3-bb30-0cec6a0cfbd1))
  (fp_line (start -4.5 -10.5) (end -4.5 -11.5)
    (stroke (width 0.12) (type solid)) (layer "F.SilkS") (tstamp 689374ac-6230-4af9-80a7-7b55bdcd8d8d))
  (fp_line (start 4.5 -11.5) (end 4.5 -10.5)
    (stroke (width 0.12) (type solid)) (layer "F.SilkS") (tstamp 71e68074-6951-43ab-9d1f-7bd63a1d0426))
  (fp_line (start 4.5 -10.5) (end 7.5 -10.5)
    (stroke (width 0.12) (type solid)) (layer "F.SilkS") (tstamp e14ac5b8-be90-40d6-a8ca-8d66a809593f))
  (fp_line (start 9 -9) (end 9 9)
    (stroke (width 0.12) (type solid)) (layer "F.SilkS") (tstamp 1b9ba014-8b7f-46b5-971e-488d2b0ac4cc))
  (fp_arc (start -9 -9) (mid -8.56066 -10.06066) (end -7.5 -10.5)
    (stroke (width 0.12) (type solid)) (layer "F.SilkS") (tstamp 41f6e35a-8c39-4afb-ac10-94a47bd11fd2))
  (fp_arc (start -7.5 10.5) (mid -8.56066 10.06066) (end -9 9)
    (stroke (width 0.12) (type solid)) (layer "F.SilkS") (tstamp 68a01b5e-0671-47f2-896d-3cea7e1da1ca))
  (fp_arc (start 7.5 -10.5) (mid 8.56066 -10.06066) (end 9 -9)
    (stroke (width 0.12) (type solid)) (layer "F.SilkS") (tstamp a49b6fa5-2c2a-452c-93a8-8148f786a4cb))
  (fp_arc (start 9 9) (mid 8.56066 10.06066) (end 7.5 10.5)
    (stroke (width 0.12) (type solid)) (layer "F.SilkS") (tstamp 2d886b4c-fbe8-4ca3-b781-398da5235237))
  (pad "0" thru_hole roundrect (at -7.62 -7.62) (size 1.8 1.8) (drill 1) (layers "*.Cu" "*.Mask") (roundrect_rratio 0.25) (tstamp da773c34-ea72-4934-b7b6-f0b0d9eb6718))
  (pad "1" thru_hole circle (at -7.62 -5.08) (size 1.8 1.8) (drill 1) (layers "*.Cu" "*.Mask") (tstamp b71f34c6-d21c-437e-9e6c-86163a8e6c35))
  (pad "2" thru_hole circle (at -7.62 -2.54) (size 1.8 1.8) (drill 1) (layers "*.Cu" "*.Mask") (tstamp 775330c7-8ce2-4b8a-8923-989cc034e544))
  (pad "3" thru_hole circle (at -7.62 0) (size 1.8 1.8) (drill 1) (layers "*.Cu" "*.Mask") (tstamp 28f9b115-09a2-4428-8f1a-11a4e9a1b5f6))
  (pad "4" thru_hole circle (at -7.62 2.54) (size 1.8 1.8) (drill 1) (layers "*.Cu" "*.Mask") (tstamp 69866f89-06a3-4a38-b0a5-c9e62f2cb6bf))
  (pad "5" thru_hole circle (at -7.62 5.08) (size 1.8 1.8) (drill 1) (layers "*.Cu" "*.Mask") (tstamp b34b1277-9ddd-4491-b392-5aa8dcb3678d))
  (pad "6" thru_hole circle (at -7.62 7.62) (size 1.8 1.8) (drill 1) (layers "*.Cu" "*.Mask") (tstamp 069800c6-0702-4779-9f87-fd51bc6856bf))
  (pad "7" thru_hole circle (at 7.62 7.62) (size 1.8 1.8) (drill 1) (layers "*.Cu" "*.Mask") (tstamp e897cad4-49be-45e4-9179-1173356a7285))
  (pad "8" thru_hole circle (at 7.62 5.08) (size 1.8 1.8) (drill 1) (layers "*.Cu" "*.Mask") (tstamp 1fa1086d-8c99-4d69-8722-465b4a740ed8))
  (pad "9" thru_hole circle (at 7.62 2.54) (size 1.8 1.8) (drill 1) (layers "*.Cu" "*.Mask") (tstamp 10d25db1-5be3-4c94-b3d0-ee7ea1608778))
  (pad "10" thru_hole circle (at 7.62 0) (size 1.8 1.8) (drill 1) (layers "*.Cu" "*.Mask") (tstamp 7a6450cf-4c3c-4a55-a7d7-ca7ce04a876a))
  (pad "11" thru_hole circle (at 7.62 -2.54) (size 1.8 1.8) (drill 1) (layers "*.Cu" "*.Mask") (tstamp de1c4e04-4a2a-4c75-aa1c-d0db8c4d0b3c))
  (pad "12" thru_hole circle (at 7.62 -5.08) (size 1.8 1.8) (drill 1) (layers "*.Cu" "*.Mask") (tstamp 8760cb80-1432-4e87-b85c-0b638b92da27))
  (pad "13" thru_hole circle (at 7.62 -7.62) (size 1.8 1.8) (drill 1) (layers "*.Cu" "*.Mask") (tstamp 1b5671a7-7815-460b-aedc-fe0edc80e057))
  (pad "14" thru_hole rect (at -4.445 -2.54) (size 1.5 1.5) (drill 1) (layers "*.Cu" "*.Mask") (tstamp cf6c91be-a891-4ea1-9d92-fa2ac811ed50))
  (pad "15" thru_hole rect (at -4.445 -0.635) (size 1.5 1.5) (drill 1) (layers "*.Cu" "*.Mask") (tstamp 3659107b-ae02-4a0a-a243-e16857acd581))
  (model "${KIPRJMOD}/3d-models/Seeed Studio XIAO RP2040 v26.step"
    (offset (xyz 0 0 5.08))
    (scale (xyz 1 1 1))
    (rotate (xyz 0 0 0))
  )
)
